Fixed_Point_Unit.vcd
$date
	Tue Jul 02 21:12:00 2024
$end
$version
	Icarus Verilog
$end
$timescale
	1ns
$end
$scope module Fixed_Point_Unit_Testbench $end
$var wire 32 ! fpu_result [31:0] $end
$var wire 1 " fpu_ready $end
$var parameter 32 # CLK_PERIOD $end
$var reg 1 $ clk $end
$var reg 32 % operand_1 [31:0] $end
$var reg 32 & operand_2 [31:0] $end
$var reg 2 ' operation [1:0] $end
$var reg 1 ( reset $end
$scope module uut $end
$var wire 1 $ clk $end
$var wire 32 ) operand_1 [31:0] $end
$var wire 32 * operand_2 [31:0] $end
$var wire 2 + operation [1:0] $end
$var wire 1 ( reset $end
$var wire 32 , P4 [31:0] $end
$var wire 32 - P3 [31:0] $end
$var wire 32 . P2 [31:0] $end
$var wire 32 / P1 [31:0] $end
$var wire 16 0 B2 [15:0] $end
$var wire 16 1 B1 [15:0] $end
$var wire 16 2 A2 [15:0] $end
$var wire 16 3 A1 [15:0] $end
$var parameter 32 4 FBITS $end
$var parameter 32 5 WIDTH $end
$var reg 32 6 partialProduct1 [31:0] $end
$var reg 32 7 partialProduct2 [31:0] $end
$var reg 32 8 partialProduct3 [31:0] $end
$var reg 32 9 partialProduct4 [31:0] $end
$var reg 64 : product [63:0] $end
$var reg 1 ; product_ready $end
$var reg 1 " ready $end
$var reg 32 < result [31:0] $end
$var reg 32 = root [31:0] $end
$var reg 1 > root_ready $end
$scope module multiplier1 $end
$var wire 16 ? operand_1 [15:0] $end
$var wire 16 @ operand_2 [15:0] $end
$var reg 32 A product [31:0] $end
$upscope $end
$scope module multiplier2 $end
$var wire 16 B operand_1 [15:0] $end
$var wire 16 C operand_2 [15:0] $end
$var reg 32 D product [31:0] $end
$upscope $end
$scope module multiplier3 $end
$var wire 16 E operand_1 [15:0] $end
$var wire 16 F operand_2 [15:0] $end
$var reg 32 G product [31:0] $end
$upscope $end
$scope module multiplier4 $end
$var wire 16 H operand_1 [15:0] $end
$var wire 16 I operand_2 [15:0] $end
$var reg 32 J product [31:0] $end
$upscope $end
$upscope $end
$upscope $end
$enddefinitions $end
$comment Show the parameter values. $end
$dumpall
b100000 5
b1010 4
b100 #
$end
#0
$dumpvars
bx J
bx I
bx H
bx G
bx F
bx E
bx D
bx C
bx B
bx A
bx @
bx ?
x>
bx =
bx <
x;
bx :
bx 9
bx 8
bx 7
bx 6
bx 3
bx 2
bx 1
bx 0
bx /
bx .
bx -
bx ,
bx +
bx *
bx )
1(
bx '
bx &
bx %
1$
0"
bx !
$end
#2
0$
#4
1$
#6
0$
#8
1$
#10
0$
#12
0(
1$
#14
0$
#16
1$
#18
0$
#20
1;
b111010111010000000000000 :
b0 9
b0 8
b0 7
b111010111010000000000000 6
b111010111010000000000000 /
b111010111010000000000000 A
b0 .
b0 D
b0 -
b0 G
b0 ,
b0 J
1"
b1111011000000 !
b1111011000000 <
b1000001000000 1
b1000001000000 @
b1000001000000 F
b0 0
b0 C
b0 I
b111010000000 3
b111010000000 ?
b111010000000 B
b0 2
b0 E
b0 H
b0 '
b0 +
b1000001000000 &
b1000001000000 *
b111010000000 %
b111010000000 )
1$
#22
0$
#24
bx :
bx0000000000000000 8
bx0000000000000000 7
bx 6
bx /
bx A
bx .
bx D
bx -
bx G
bx ,
bx J
0"
bz !
bz <
bz 1
bz @
bz F
bz 0
bz C
bz I
bz 3
bz ?
bz B
bz 2
bz E
bz H
bz '
bz +
bz &
bz *
bz %
bz )
1$
#26
0$
#28
b10101110000000000000000 :
b0 8
b0 7
b10101110000000000000000 6
b10101110000000000000000 /
b10101110000000000000000 A
b0 .
b0 D
b0 -
b0 G
b0 ,
b0 J
1"
b100010000000 !
b100010000000 <
b11000000000 1
b11000000000 @
b11000000000 F
b0 0
b0 C
b0 I
b111010000000 3
b111010000000 ?
b111010000000 B
b0 2
b0 E
b0 H
b1 '
b1 +
b11000000000 &
b11000000000 *
b111010000000 %
b111010000000 )
1$
#30
0$
#32
bx :
bx0000000000000000 8
bx0000000000000000 7
bx 6
bx /
bx A
bx .
bx D
bx -
bx G
bx ,
bx J
0"
bz !
bz <
bz 1
bz @
bz F
bz 0
bz C
bz I
bz 3
bz ?
bz B
bz 2
bz E
bz H
bz '
bz +
bz &
bz *
bz %
bz )
1$
#34
0$
#36
b10101110000000000000000 :
b0 8
b0 7
b10101110000000000000000 6
b10101110000000000000000 /
b10101110000000000000000 A
b0 .
b0 D
b0 -
b0 G
b0 ,
b0 J
1"
b1010111000000 !
b1010111000000 <
b11000000000 1
b11000000000 @
b11000000000 F
b0 0
b0 C
b0 I
b111010000000 3
b111010000000 ?
b111010000000 B
b0 2
b0 E
b0 H
b10 '
b10 +
b11000000000 &
b11000000000 *
b111010000000 %
b111010000000 )
1$
#38
0$
#40
bx :
bx0000000000000000 8
bx0000000000000000 7
bx 6
bx /
bx A
bx .
bx D
bx -
bx G
bx ,
bx J
0"
bz !
bz <
bz 1
bz @
bz F
bz 0
bz C
bz I
bz 3
bz ?
bz B
bz 2
bz E
bz H
bz '
bz +
bz &
bz *
bz %
bz )
1$
#42
0$
#44
x"
bx !
bx <
b1100110000000000 3
b1100110000000000 ?
b1100110000000000 B
b1 2
b1 E
b1 H
b11 '
b11 +
b11100110000000000 %
b11100110000000000 )
1$
#46
0$
#48
1$
#50
0$
#52
1$
#54
0$
#56
0"
bz !
bz <
bz 3
bz ?
bz B
bz 2
bz E
bz H
bz '
bz +
bz %
bz )
1$
#58
0$
#60
1$
#62
0$
#64
1$
#66
0$
#68
1$
#70
0$
#72
1$
#74
0$
#76
1$
#78
0$
#80
1$
#82
0$
#84
1$
#86
0$
#88
1$
#90
0$
#92
1$
#94
0$
#96
$dumpoff
bx J
bx I
bx H
bx G
bx F
bx E
bx D
bx C
bx B
bx A
bx @
bx ?
x>
bx =
bx <
x;
bx :
bx 9
bx 8
bx 7
bx 6
bx 3
bx 2
bx 1
bx 0
bx /
bx .
bx -
bx ,
bx +
bx *
bx )
x(
bx '
bx &
bx %
x$
x"
bx !
$end
1$